﻿{
  "AppSettings": {
    "SaveLogDirectory": "log",
    "SaveHL7Data": true,
    "GatewayAddress": "localhost,localhost",
    "GatewayPortNumber": "54321,54322",
    "DataValidTimeSec": 1800000,
    "DebugMode": true,
    "ECarteServer": "http://localhost:10234/live/aries/...",
    "MaxPatientCount": 50,
    "RegisterId": 9004
  }
}
